{
  "lastPage": false,
  "totalPages": 5,
  "pageNumber": 0,
  "totalResults": 24,
  "pageContent": [
    { "firstName": "First", "lastName": "Last", "consumerAccountNumber": "0X1YGPEK9CDLGAVL" },
    { "firstName": "First", "lastName": "Last", "consumerAccountNumber": "24GZHZG4PR96PB4X" },
    {
      "firstName": "First",
      "lastName": "Last",
      "mobile": "8008525867",
      "phone": "8008525866",
      "consumerAccountNumber": "4EDJ6L7FDUE6PBV4"
    },
    {
      "firstName": "First",
      "lastName": "Last",
      "mobile": "8008525861",
      "phone": "8008525860",
      "consumerAccountNumber": "4OQBKCM7VLQ6WHO1"
    },
    {
      "firstName": "First",
      "lastName": "Last",
      "mobile": "8008525869",
      "phone": "8008525868",
      "consumerAccountNumber": "544M8NHWHV1K99RP"
    }
  ]
}
