{
    "lastPage": false,
    "totalPages": 4,
    "pageNumber": 0,
    "totalResults": 24,
    "pageContent": [
        {
            "consumerAccountNumber": "0DOSG1LT0NCSACVV",
            "firstName": "First",
            "lastName": "Last",
            "isActive": true
        },
        {
            "consumerAccountNumber": "EYD75EYG1HWWY3JB",
            "firstName": "First",
            "lastName": "Last",
            "alternateId": "7490000702",
            "isActive": true
        },
        {
            "consumerAccountNumber": "EYD75EYG1HWWY5JB",
            "firstName": "First",
            "lastName": "Last",
            "phone": "7495000750",
            "alternateId": "7490000702",
            "isActive": true
        },
        {
            "consumerAccountNumber": "EYD75EYG1HWWY6JB",
            "firstName": "First",
            "lastName": "Last",
            "phone": "8008525868",
            "alternateId": "8008525861",
            "isActive": true
        },
        {
            "consumerAccountNumber": "EYD75EYG1HWWY788",
            "firstName": "First",
            "lastName": "Last",
            "phone": "8008525869",
            "alternateId": "8008525854"
        },
        {
            "consumerAccountNumber": "EYD75EYG1HWWY4JB",
            "firstName": "First",
            "lastName": "Last",
            "phone": "8008525855",
            "alternateId": "8008525854",
            "isActive": true
        }
    ]
}